{
	"OptionProper": [
		"防御力 [+0]",
		"ブロック率 [+0]％",
		"スタックアイテム [0]個",
		"[0]個の制限なしの称号の作成可能",
		"HP回復 [0]ポイント",
		"HP回復 [0]％",
		"CP充填 [0]ポイント",
		"CP充填 [0]％",
		"HP回復 [0]ポイント%d%a- CP充填 [0]ポイント",
		"HP回復 [0]％%d%a- CP充填 [0]％",
		"戦闘不能のキャラクター復活%d%a- HP回復 <c:LTYELLOW>[0]％<n>",
		"戦闘不能状態から復活%d%a- HP回復 <c:LTYELLOW>[0]％<n>",
		"状態異常の中和 [0]％",
		"すべての異常系の状態治療",
		"すべての低下系の状態治療",
		"すべての呪い系の状態治療 ",
		"すべての状態異常の治療",
		"毒状態の治療",
		"力 [+0] [1]秒",
		"敏捷 [+0] [1]秒",
		"健康 [+0] [1]秒",
		"知恵 [+0] [1]秒",
		"知識 [+0] [1]秒",
		"カリスマ [+0] [1]秒",
		"幸運 [+0] [1]秒",
		"攻撃力 [+1]％ [0]秒",
		"防御力 [+1]％ [0]秒",
		"最大HP [+1]％ [0]秒",
		"最大CP [+1]％ [0]秒",
		"武器ダメージを最高に維持 [0]秒",
		"CPを最高に維持 [0]秒",
		"宝箱の鍵 レベル [0]",
		"門の鍵 レベル [0]",
		"万能鍵 レベル [0]",
		"街へ帰還する",
		"街往復ポータル",
		"使用可能回数[1]回(維持時間 [0]分)",
		"ターゲット即死確率 [+0]％",
		"ベルセルク攻撃[0]％ [1]秒",
		"鎧破壊攻撃[0]％ [1]秒",
		"武器破壊攻撃[0]％ [1]秒",
		"毒攻撃- 秒当りダメージ [1]([0]秒)",
		"混乱攻撃[0]％ [1]秒",
		"誘惑攻撃[0]％ [1]秒",
		"スタン攻撃[0]％ [1]Frame",
		"コールド攻撃[0]％ [1]秒",
		"火属性 ダメージ [+0]",
		"水属性 ダメージ  [+0]",
		"風属性 ダメージ  [+0]",
		"大地属性 ダメージ  [+0]",
		"光属性 ダメージ  [+0]",
		"闇属性 ダメージ  [+0]",
		"vs アンデッド系キャラクター - ダメージ  [+0]％",
		"vs 悪魔系キャラクター - ダメージ  [+0]％",
		"vs 人間系キャラクター - ダメージ  [+0]％",
		"vs 動物系キャラクター - ダメージ  [+0]％",
		"vs 神獣系キャラクター - ダメージ  [+0]％",
		"アイテム リロードタイム -[0]％",
		"変身速度 [0]％ 増加",
		"ポーション  回復速度 [0]％ 増加",
		"ダメージ  リターン [0]％",
		"無限弾丸",
		"近接系列職業 攻撃力 [+0]～[+1]",
		"力 [+0]",
		"知恵 [+0]",
		"知識 [+0]",
		"健康 [+0]",
		"敏捷 [+0]",
		"カリスマ [+0]",
		"幸運 [+0]",
		"クリティカル [+0]％",
		"決定打 [+0]％",
		"命中率 [+0]％",
		"集中力 [+0]",
		"攻撃速度 [+0]％",
		"状態 抵抗 [+0]％",
		"能力値低下状態 抵抗 [+0]％",
		"異常状態 抵抗 [+0]％",
		"すべての状態異常 抵抗 [+0]％",
		"火 抵抗 [+0]％",
		"大地 抵抗 [+0]％",
		"風 抵抗 [+0]％",
		"水 抵抗 [+0]％",
		"光 抵抗 [+0]％",
		"闇 抵抗 [+0]％",
		"火, 水, 風, 大地 抵抗 [+0]％",
		"魔法 抵抗 [+0]％",
		"ノックバック 抵抗 [+0]％",
		"致命打 抵抗 [+0]％",
		"決定打 抵抗 [+0]％",
		"即死 抵抗 [+0]％",
		"ランサーのスキルレベル [+0]",
		"アーチャーのスキルレベル [+0]",
		"剣士のスキルレベル [+0]",
		"戦士のスキルレベル [+0]",
		"ウィザードのスキルレベル [+0]",
		"ウルフマンのスキルレベル [+0]",
		"シーフのスキルレベル [+0]",
		"武道家のスキルレベル [+0]",
		"ビーストテイマーのスキルレベル [+0]",
		"サマナーのスキルレベル [+0]",
		"プリンセスのスキルレベル [+0]",
		"リトルウィッチのスキルレベル [+0]",
		"ビショップのスキルレベル [+0]",
		"追放天使のスキルレベル [+0]",
		"ネクロマンサーのスキルレベル [+0]",
		"悪魔のスキルレベル [+0]",
		"女性キャラクター スキルレベル [+0]",
		"男性キャラクター スキルレベル [+0]",
		"すべてのスキルレベル [+0]",
		"回避率 [+0]％",
		"誘惑攻撃[0]％ <c:LTYELLOW>30<n>秒",
		"コールド攻撃<c:LTYELLOW>100％<n> [0]秒",
		"力 [+0] (成功確率 : [1]％)",
		"敏捷 [+0] (成功確率 : [1]％)",
		"健康 [+0] (成功確率 : [1]％)",
		"知恵 [+0] (成功確率 : [1]％)",
		"知識 [+0] (成功確率 : [1]％)",
		"カリスマ [+0] (成功確率 : [1]％)",
		"幸運 [+0] (成功確率 : [1]％)",
		"最大 HP [+0] (失敗確率 : [0]*[1]％)",
		"最大 CP [+0] (失敗確率 : [0]*[1]％)",
		"武器 ダメージ  [+0]％ (失敗確率 : [0]+0.65％)",
		"鎧 防御力 [+0] (失敗確率 : [0]+0.65％)",
		"称号 [0]個  生成 (成功確率 : [1]％)",
		"ダメージ  リターン <c:LTYELLOW>40％<n>",
		"使用者に [0]レベル フロンティア　タイトルを付与します。",
		"ドロップレベル [0]のレア　アイテムをランダムに生成する。成功確率 [1]％",
		"ドロップレベル [0]のユニーク　アイテムをランダムに生成する。成功確率 [1]％",
		"ドロップレベル [0]のスーパー　ユニークをランダムに生成する。成功確率 [1]％",
		"スキルポイント 再配分",
		"ステータスポイント 再配分",
		"ダメージ　オプション変換",
		"危険なダメージ  オプション変換",
		"経験値 <c:LTYELLOW>1.5倍<n>%d%a- アイテム ドロップ率 <c:LTYELLOW>1.5倍<n>%d%a-<c:LTYELLOW> 街　無制限の帰還可能<n>%d%a-<c:LTYELLOW> プレミアムゾーン進入<n>%d%a-<c:LTYELLOW> タウン  テレポーター無料使用<n>%d%a-<c:LTYELLOW> 魔法のカーペット無限召喚可能<n>",
		"[0]分の間、攻撃力を [1]％ 増加させる。",
		"[0]分の間、防御力を [1]％ 増加させる。",
		"[0]分の間、HPを [1]％ 増加させる。",
		"[0]分の間、CPを [1]％ 増加させる。",
		"[0]分の間、武器ダメージが最高に維持される。",
		"[0]分の間、CPがいつも最高に維持される。",
		"力を [0]ほど [1]分の間、上昇させる。",
		"敏捷を [0]ほど [1]分の間、上昇させる。",
		"健康を [0]ほど [1]分の間、上昇させる。",
		"知恵を [0]ほど [1]分の間、上昇させる。",
		"知識を [0]ほど [1]分の間、上昇させる。",
		"カリスマを [0]ほど [1]分の間、上昇させる。",
		"運を [0]ほど [1]分の間、上昇させる。",
		"自分のレベルより [0]レベル高い制限レベルのアイテム使用可能",
		"現在の位置を場所スロット[0]に覚えてクリスタルを[1]個生成する。",
		"場所スロット [0] で覚えている場所にテレポートする。",
		"死亡ペナルティー時間を<c:LTGREEN>90％<n>減少して、<c:LTGREEN>[0]秒<n>の間、最大HPを[1]％にする。",
		"魔法のカーペットを召喚する。",
		"[0]分の間、攻撃力を [1]<c:LTYELLOW>0<n>％ 増加させる。",
		"[0]分の間、防御力 [1]<c:LTYELLOW>0<n>％ 増加させる。",
		"レベル [0]が上昇する。",
		"すべてのスキルレベル <c:LTGREEN>+2<n>%d%a- 幸運 <c:LTGREEN>+200<n> ",
		"<c:LTYELLOW>持っていると魔法のカーペットの模様が変わる。<n>",
		"<c:LTYELLOW>ジム・モリのアイテム エンチャント<n>",
		"<c:LTYELLOW>不慣れな手つきで、壊れたアイテムを修理します。<n>",
		"<c:LTYELLOW>アイテムエンチャント<n>",
		"<c:LTYELLOW>壊れたアイテムを完璧に修理します。<n>",
		"<c:LTYELLOW>アイテムにかかっている呪いを解いてくれる。<n>",
		"<c:LTYELLOW>アイテム改良制限を解いてくれる。<n>",
		"<c:LTYELLOW>○× クイズチケット<n>",
		"座っている時、回復速度が <c:LTYELLOW>[0]％<n> 増加する。",
		"ギルドを作成してくれる。",
		"ギルドのレベルを <c:LTYELLOW>[0]<n>にしてくれる。",
		"ギルドマークを選ぶことができる選択の幅を増やしてくれる。",
		"ギルドマークを選ぶことができる選択の幅を増やしてくれる。",
		"ギルドマークを選ぶことができる選択の幅を増やしてくれる。",
		"ギルドマークを選ぶことができる選択の幅を増やしてくれる。",
		"ギルドマークを選ぶことができる選択の幅を増やしてくれる。",
		"ギルドマークを選ぶことができる選択の幅を増やしてくれる。",
		"ギルドマークを選ぶことができる選択の幅を増やしてくれる。",
		"ギルドマークを選ぶことができる選択の幅を増やしてくれる。",
		"頼もしい立て札",
		"露店商の立て札の内容の色を選択できるようにしてくれる。",
		"露店商の立て札の内容を太い字で書くことができるようにしてくれる。",
		"露店商の名前をより長く 書くことができるようにしてくれる。",
		"露店商の立て札の周りにきらめく効果をくれる。",
		"露店商の関連機能をすべて可能にしてくれる。(アシスタント除外)",
		"派手な立て札",
		"不思議な立て札",
		"きれいな立て札",
		"情熱的な立て札",
		"拡声器",
		"ドロップレベル [0]～[1] 間のノーマル　アイテムをランダムに生成する。成功確率 100％",
		"ターゲットの火の抵抗を <c:LTYELLOW>[0]％<n> 弱化させる。",
		"ターゲットの水の抵抗を <c:LTYELLOW>[0]％<n> 弱化させる。",
		"ターゲットの風の抵抗を <c:LTYELLOW>[0]％<n> 弱化させる。",
		"ターゲットの大地の抵抗を <c:LTYELLOW>[0]％<n> 弱化させる。",
		"ターゲットの光の抵抗を <c:LTYELLOW>[0]％<n> 弱化させる。",
		"ターゲットの闇の抵抗を <c:LTYELLOW>[0]％<n> 弱化させる。",
		"ターゲットの魔法の抵抗を <c:LTYELLOW>[0]％<n> 弱化させる。",
		"火属性の攻撃力を <c:LTYELLOW>[0]％<n> 強化させる。",
		"水属性の攻撃力を <c:LTYELLOW>[0]％<n> 強化させる。",
		"風属性の攻撃力を <c:LTYELLOW>[0]％<n> 強化させる。",
		"大地属性の攻撃力を <c:LTYELLOW>[0]％<n> 強化させる。",
		"光属性の攻撃力を <c:LTYELLOW>[0]％<n> 強化させる。",
		"闇属性の攻撃力を <c:LTYELLOW>[0]％<n> 強化させる。",
		"魔法の攻撃力を <c:LTYELLOW>[0]％<n> 強化させる。",
		"ペットの飼育記録書である。",
		"神秘的なアイテムボックス",
		"魔力補充キット",
		"HP回復機能のあるタートル絨毯(カーペット)を召喚する。",
		"移動してもCPが減少しないリスの絨毯(カーペット)を召喚する。",
		"魔法絨毯(カーペット)よりも移動速度が早いドレイク絨毯(カーペット)を召喚する。",
		"乗ったままで攻撃可能なギア絨毯(カーペット)を召喚する。",
		"旅行者用のカバンの大きさを<c:LTYELLOW>[0]<n>箇所拡張させる。",
		"デラックスアイテムの耐久度を<c:LTYELLOW>[0]％<n>上昇させる。",
		"アイテムのかけら",
		"<c:LTYELLOW>秘密ダンジョン鍵<n>",
		"<c:LTYELLOW>称号削除<n>",
		"<c:LTYELLOW>ワールドマップへフィールド移動<n>",
		"<c:LTYELLOW>垂直バナー設置<n>",
		"<c:LTYELLOW>垂直バナー設置<n>",
		"<c:LTYELLOW>宝物地図<n>",
		"幸運[+0]<c:LTYELLOW>00<n> [1]分",
		"ギルドスキルポイント再分配(石像スキル除外)",
		"ウェイポイントスロット[0]に記憶している場所に通じるポータルを開く。",
		"カップルリング２つを生成する。",
		"カップルリング",
		"同じ種類のアイテム２つを交ぜる。",
		"花火",
		"どのような花火が出るか、使う前にはわからない。",
		"選択ステータス増加",
		"プレゼント用カップルリング",
		"パートナー無しカップルリング",
		"本にカテゴリー追加",
		"本にページ追加",
		"本",
		"プリンセス変身時の武器",
		"ギルドホール移動アイテム",
		"ギルドガーディアン召喚",
		"ギルド石像関連アイテム",
		"ギルド石像関連アイテム",
		"運営者に変身することができる。",
		"最終ダメージが[0]<c:LTYELLOW>分<n>間[1]<c:LTYELLOW>0％<n>増加する。",
		"モンスターを倒す時に獲得する経験値が[0]<c:LTYELLOW>分<n>間[1]<c:LTYELLOW>0％<n>増加する。",
		"アイテムドロップ確率が[0]<c:LTYELLOW>分<n>間[1]<c:LTYELLOW>0％<n>増加する。",
		"死亡ペナルティーをすべて回復させる。",
		"移動中も増加する。",
		"イベント用風船",
		"神秘的なアイテムボックス",
		"最終ダメージ[+1]％[0]分",
		"ミニペット召喚",
		"ミニペット期間延長",
		"全ミニペット期間延長",
		"ミニペット封印",
		"ミニペット名前変更",
		"ミニペットが入った袋",
		"ミニペットのエサ",
		"ミニペットのエサ",
		"ミニペットのエサ",
		"ミニペットを2体同時に活性化できるようになる%d%a- 期間 [0]日",
		"称号レベル上昇",
		"取引不可アイテムを取引可能に変更",
		"ギルドスキルポイント再分配(石像スキル除外)",
		"HP [+1]",
		"CP [+1]",
		"自分のレベルより[0]レベル高いレベル制限アイテムの使用が可能",
		"スキル１つ初期化",
		"ステータス１つ初期化",
		"称号除去",
		"アイテム複製",
		"一般アイテム称号アップグレード",
		"一般アイテム性能向上",
		"ユニークアイテム称号アップグレード",
		"ユニークアイテム性能向上",
		"同じ種類のアイテム２つを交ぜる",
		"性向数値選択",
		"タイムスタンプ",
		"称号追加",
		"狩りでの経験値ボーナス",
		"バッジに刻印する",
		"生命石",
		"魔法絨毯(カーペット)よりも移動速度が早いファイヤードレイク絨毯(カーペット)を召喚する。",
		"火炎の激怒",
		"水の波動",
		"風の加護",
		"大地の響き",
		"ルーンを刻印する",
		"覚醒の種",
		"覚醒の果実",
		"ギルドマーク・シグナルパッケージ",
		"ギルドマーク・ユニーク１パッケージ",
		"ギルドマーク・ユニーク２パッケージ",
		"HPを [0]<c:LTYELLOW>00<n>ポイント回復",
		"CPを [0]<c:LTYELLOW>00<n>ポイント充填",
		"[*]",
		"ステータスポイント 力 再配分",
		"ステータスポイント 敏捷 再配分",
		"ステータスポイント 健康 再配分",
		"ステータスポイント 知識 再配分",
		"ステータスポイント 知恵 再配分",
		"ステータスポイント カリスマ 再配分",
		"ステータスポイント 運 再配分",
		"ワールドマップ上のフィールドを自由に移動できる。",
		"戦闘不能になったパーティーメンバーを全員復活させて[0]<c:LTYELLOW>秒<n>間最大HP、CPを[1]<c:LTYELLOW>％<n>増加させる。",
		"一日の秘密ダンジョン入場制限回数を[0]<c:LTYELLOW>回<n>増加させる。",
		"ミニペットがエサを食べて獲得する際の経験値を[0]<c:LTYELLOW>ポイント<n>増加させる。",
		"移動速度 [0]<c:LTYELLOW>％<n>増加",
		"HP [0]<c:LTYELLOW>％<n>すぐに回復",
		"HP [0]<c:LTYELLOW>00ポイント<n>すぐに回復",
		"一日のギルドダンジョン入場制限回数を[0]<c:LTYELLOW>回<n>増加させる。",
		"ペットの名前をno nameに戻し、名前を変更することができる。",
		"[0]<c:LTYELLOW>時間<n>の間、すべてのプレイヤーの経験値とアイテムドロップ率を[1]<c:LTYELLOW>ポイント<n>増加する。",
		"[0]<c:LTYELLOW>％<n>確率で<c:LTYELLOW>物理ダメージ<n>の[1]<c:LTYELLOW>％<n>を 体力吸収",
		"ミニペットを調和させる。",
		"ミニペットのオーラを取り込む",
		"[0]<c:LTYELLOW>0<n>レベル以下のアイテム 1つを能力に関係なく使用可能にする。",
		"火属性 ダメージ [+0]",
		"水属性 ダメージ  [+0]",
		"風属性 ダメージ  [+0]",
		"大地属性 ダメージ  [+0]",
		"光属性 ダメージ  [+0]",
		"闇属性 ダメージ  [+0]",
		"霊術師のスキルレベル [+0]",
		"<c:LTYELLOW>[0]％<n>の確率でアイテムの称号を付ける",
		"<c:LTYELLOW>[0]％<n>の確率でアイテムの称号をコピーする",
		"<c:LTYELLOW>選択したアイテムの称号を削除する<n>",
		"残り体力をすぐに減少 [0]％",
		"<c:LTYELLOW>[0]％<n>の確率でアイテムの称号を付ける【 取引不可 】",
		"<c:LTYELLOW>[0]％<n>の確率でアイテムの称号をコピーする【 取引不可 】",
		"<c:LTYELLOW>選択したアイテムの称号を削除する<n>",
		"イベント用風船",
		"すべての能力値 [+0]",
		"選択したステータス [+0]増加",
		"[0]分間 レベル[1]の狩人に変身",
		"[0]分間 レベル[1]のアサシンに変身",
		"[0]分間 レベル[1]のブラックメイジに変身",
		"現在、フィールドにいるモンスターを召喚する。",
		"刻印レベル[0]",
		"<c:LTYELLOW>[0]％<n>の確率で刻印レベルを <c:LTYELLOW>1～[1]<n>増加",
		"<c:LTYELLOW>[0]％<n>の確率で刻印レベルを<c:LTYELLOW>[1]<n>増加",
		"<c:LTYELLOW>[0]％<n>の確率で受けたダメージ <c:LTYELLOW>[0]％<n>減少",
		"<c:LTYELLOW>[0]<n>秒ごとにCPを <c:LTYELLOW>[0]<n>回復",
		"獲得経験値 <c:LTYELLOW>[0]％<n>増加",
		"<c:LTYELLOW>[0]％<n>の確率で火属性ダメージ <c:LTYELLOW>[0]<n>追加",
		"すべてのステータス <c:LTYELLOW>[0]<n>増加",
		"<c:LTYELLOW>[0]<n>秒間 すべてのパーティーメンバー無敵状態",
		"レベル<c:LTYELLOW>[0]<n>のファミリアに <c:LTYELLOW>[0]<n>分間 変身",
		"最大体力 <c:LTYELLOW>[0]<n>増加",
		"使用時、<c:LTYELLOW>[0]<n>分間 攻撃力 <c:LTYELLOW>[0]％<n>増加",
		"レベル<c:LTYELLOW>[0]<n>のヘルプリズン使用",
		"ミニペットのエサ",
		"ミニペットのスキルポイント 再配分",
		"ミニペットの進化形態変化",
		"最大HP [+0]",
		"最大CP [+0]",
		"防御力 [+0]％",
		"最大HP [+0]％",
		"最大CP [+0]％",
		"残り体力を [(0*1)] ポイントに変更",
		"フィールド移動",
		"RED STONE獲得可能レベル [+0]",
		"ジャンプ",
		"力 [+(0*1)]",
		"知恵 [+(0*1)]",
		"知識 [+(0*1)]",
		"健康 [+(0*1)]",
		"敏捷 [+(0*1)]",
		"カリスマ [+(0*1)]",
		"運 [+(0*1)]",
		"狩りでの獲得経験値 [0]<c:LTYELLOW>分間<n> [1]<c:LTYELLOW>0％<n> 増加",
		"<c:LTYELLOW>封印されし力を解放<n>",
		"<c:LTYELLOW>封印されし力を解放<n>",
		"<c:LTYELLOW>封印されし力を解放<n>",
		"自分のレベルより [0]レベル高い秘密ダンジョンに入場できるようにする",
		"自分のレベルより [0]レベル低い秘密ダンジョンに入場できるようにする",
		"<c:LTYELLOW>[0]<n>秒の間、魔法攻撃力を <c:LTYELLOW>[1]<n>％増加する。",
		"<c:LTYELLOW>[0]<n>分の間、魔法攻撃力を <c:LTYELLOW>[1]<n>％増加する。",
		"<c:LTYELLOW>[0]<n>分の間、魔法攻撃力を [1]<c:LTYELLOW>0<n>％増加する。",
		"<c:LTYELLOW>[0]<n>分の間、<c:LTYELLOW>[1]<n>レベルの幽霊鎧に変身",
		"<c:LTYELLOW>[0]<n>分の間、<c:LTYELLOW>[1]<n>レベルのコロッサスに変身",
		"<c:LTYELLOW>[0]<n>分の間、<c:LTYELLOW>[1]<n>レベルのビホルダーに変身",
		"<c:LTYELLOW>[0]<n>分の間、<c:LTYELLOW>[1]<n>レベルのナイトに変身",
		"<c:LTYELLOW>[0]<n>分の間、<c:LTYELLOW>[1]<n>レベルのティンバーマンに変身",
		"<c:LTYELLOW>[0]<n>分の間、剣士<c:LTYELLOW>[1]<n>段階に変身",
		"<c:LTYELLOW>[0]<n>分の間、戦士<c:LTYELLOW>[1]<n>段階に変身",
		"<c:LTYELLOW>[0]<n>分の間、ウィザード<c:LTYELLOW>[1]<n>段階に変身",
		"<c:LTYELLOW>[0]<n>分の間、ウルフマン<c:LTYELLOW>[1]<n>段階に変身",
		"<c:LTYELLOW>[0]<n>分の間、ビショップ<c:LTYELLOW>[1]<n>段階に変身",
		"<c:LTYELLOW>[0]<n>分の間、追放天使<c:LTYELLOW>[1]<n>段階に変身",
		"<c:LTYELLOW>[0]<n>分の間、シーフ<c:LTYELLOW>[1]<n>段階に変身",
		"<c:LTYELLOW>[0]<n>分の間、武道家<c:LTYELLOW>[1]<n>段階に変身",
		"<c:LTYELLOW>[0]<n>分の間、ランサー<c:LTYELLOW>[1]<n>段階に変身",
		"<c:LTYELLOW>[0]<n>分の間、アーチャー<c:LTYELLOW>[1]<n>段階に変身",
		"<c:LTYELLOW>[0]<n>分の間、ビーストテイマー<c:LTYELLOW>[1]<n>段階に変身",
		"<c:LTYELLOW>[0]<n>分の間、サマナー<c:LTYELLOW>[1]<n>段階に変身",
		"<c:LTYELLOW>[0]<n>分の間、プリンセス<c:LTYELLOW>[1]<n>段階に変身",
		"<c:LTYELLOW>[0]<n>分の間、リトルウィッチ<c:LTYELLOW>[1]<n>段階に変身",
		"<c:LTYELLOW>[0]<n>分の間、ネクロマンサー<c:LTYELLOW>[1]<n>段階に変身",
		"<c:LTYELLOW>[0]<n>分の間、悪魔<c:LTYELLOW>[1]<n>段階に変身",
		"<c:LTYELLOW>[0]<n>分の間、霊術師<c:LTYELLOW>[1]<n>段階に変身",
		"<c:LTYELLOW>[0]<n>分の間、闘士<c:LTYELLOW>[1]<n>段階に変身",
		"<c:LTYELLOW>[0]<n>分の間、光奏師<c:LTYELLOW>[1]<n>段階に変身",
		"<c:LTYELLOW>[0]<n>分の間、？？？<c:LTYELLOW>[1]<n>段階に変身",
		"ミニペット召喚",
		"ミニペット期間延長",
		"全ミニペット期間延長",
		"<c:LTYELLOW>[0]<n>分の間、<c:LTYELLOW>[1]<n>レベルのパンプキンヘッドに変身",
		"<c:LTYELLOW>[0]<n>秒の間、すべての属性抵抗 <c:LTYELLOW>[1]<n>％増加",
		"<c:LTYELLOW>[0]<n>分の間、すべての属性抵抗 <c:LTYELLOW>[1]<n>％増加",
		"<c:LTYELLOW>[0]<n>分の間、秘密ダンジョンでの移動速度 <c:LTYELLOW>[1]<n>％増加",
		"銀行のスロット拡張",
		"銀行のスロット貸与期間増加",
		"パーティーメンバー召喚",
		"パーティーメンバー召喚",
		"愛を見失ったカップルリング",
		"転生ペットレベル変更",
		"秘密ダンジョン入場回数減少",
		"ランダムテレポート",
		"[0]分間、攻撃力を<c:LTYELLOW>[1]<n>％増加させる。",
		"[0]分間、攻撃力を[1]<c:LTYELLOW>0<n>％増加させる。",
		"<c:LTYELLOW>[0]<n>秒間、魔法攻撃力を<c:LTYELLOW>[1]<n>％増加させる。",
		"<c:LTYELLOW>[0]<n>分間、魔法攻撃力を<c:LTYELLOW>[1]<n>％増加させる。",
		"<c:LTYELLOW>[0]<n>分間、魔法攻撃力を[1]<c:LTYELLOW>0<n>％増加させる。",
		"デスペナルティー時間回復",
		"フラワーの成長率 [0]％ 増加",
		"金のエンチャント",
		"植木鉢の成長率をランダムに変更",
		"中級ゴールド袋",
		"下級ゴールド袋",
		"上級ゴールド袋",
		"ゴールド福引券",
		"アイテム再構成",
		"経験値ボーナス",
		"アイテムドロップ率ボーナス",
		"プレミアムダンジョン入場可能",
		"秘密ダンジョンクリア経験値ボーナス",
		"<c:LTYELLOW>[0]<n>分の間、<c:LTYELLOW>[1]<n>レベルのサキュバスに変身",
		"<c:LTYELLOW>[0]<n>分の間、<c:LTYELLOW>[1]<n>レベルのレッドアイ魔法師に変身",
		"<c:LTYELLOW>[0]<n>分の間、<c:LTYELLOW>[1]<n>レベルのレイスに変身",
		"<c:LTYELLOW>[0]<n>分の間、<c:LTYELLOW>[1]<n>レベルのレッドアイ警備犬に変身",
		"<c:LTYELLOW>[0]<n>分の間、<c:LTYELLOW>[1]<n>レベルのキャンサーに変身",
		"<c:LTYELLOW>[0]<n>分の間、<c:LTYELLOW>[1]<n>レベルのジョン・マルコに変身",
		"<c:LTYELLOW>[0]<n>分の間、<c:LTYELLOW>[1]<n>レベルのケイルンに変身",
		"<c:LTYELLOW>[0]<n>分の間、<c:LTYELLOW>[1]<n>レベルのかかしに変身",
		"輝く高級魔力の結晶体生成",
		"輝く魔力の結晶体生成",
		"<c:LTYELLOW>[0]％<n>の確率でアイテムに称号を付与",
		"<c:LTYELLOW>[0]％<n>の確率でアイテムに称号を付与",
		"ラッキーゴールド袋",
		"場所記憶機能",
		"モンスター召喚壺(一般)",
		"モンスター召喚壺(上級)",
		"イベント風船",
		"",
		"ミニペット変異促進剤",
		"ミニペット精霊型レベルブースター",
		"ミニペット自然型レベルブースター",
		"ミニペット神霊型レベルブースター",
		"",
		"ミニペットが入った袋",
		"",
		"",
		"",
		"コスチュームの色を変更",
		"物理攻撃力増加[+0]％",
		"魔法致命打発生確率[+0]％",
		"強打率[+0]％",
		"クリティカルダメージ増加[+0]％",
		"ダブルクリティカルダメージ増加[+0]％",
		"クリティカルダメージ減少[+0]％",
		"ダブルクリティカルダメージ減少[+0]％",
		"ブロッキング速度[+0]％",
		"追加経験値獲得[+0]％",
		"コスチュームを入れるカバン",
		"コスチュームが入っているカバン",
		"不思議なコスチュームボックス",
		"PVP時に攻撃力増加[+0]％",
		"PVP時に防御力増加[+0]％",
		"メインチャプター[0]を完了させる。",
		"暁の封印玉効果を解除させる。",
		"プレミアム等級のクレスト",
		"<c:LTYELLOW>[0]<n>分の間、<c:LTYELLOW>[1]<n>レベルのコボルトに変身",
		"<c:LTYELLOW>[0]<n>分の間、<c:LTYELLOW>[1]<n>レベルのゴーストに変身",
		"<c:LTYELLOW>[0]<n>分の間、<c:LTYELLOW>[1]<n>レベルの原始人に変身",
		"色固定コスチューム",
		"HP回復機能のあるフラワーカーペットを召喚する。",
		"10周年記念看板",
		"体力回復 +([0]/10秒)",
		"10周年記念カーペット",
		"レベルに応じた経験値獲得",
		"<c:LTYELLOW>1個以上の封印されたオプションを必ず解放<n>",
		"秘密ダンジョンの入口があるマップに移動する。",
		"失敗しても破壊しないエンチャントアイテムに作り変える。",
		"アニバーサリーワールド専用バフ",
		"称号獲得",
		"封印されたオプションの数をランダムに変更",
		"解放に失敗しても、既に解放されたオプションは初期化しない。",
		"特定のクレストが装着されたノーマルコスチューム支給",
		"クレスト合成",
		"刻印失敗時、破壊されない",
		"<c:LTRED>難易度<n> [0] <c:LTRED>以下スキルレベル1増加<n>",
		"レベルによる経験値獲得",
		"祈りのカケラ ドロップ率増加",
		"狩り経験値の [+0]％をゴールドで獲得",
		"[0]<c:LTYELLOW>分<n> 間、すべてのプレイヤーの経験値とアイテムドロップ率を [1]<c:LTYELLOW>倍<n>に上げる",
		"ワールドチャット回数を[0]回チャージする。",
		"15秒間冒険家掲示板にメッセージを表示する。",
		"夏休み用コスチュームプレセントセット",
		"自分のレベルより低いレベルの秘密ダンジョン入場回数残り[0]回",
		"恩寵効果発動",
		"狩りで獲得できる経験値が [0]<c:LTYELLOW>分<n>間 [1]<c:LTYELLOW>0％<n>増加する",
		"復帰者パッケージ",
		"警官コスチュームパッケージ"
	],
	"OptionBasic": [
		"力 [+0]",
		"敏捷 [+0]",
		"健康 [+0]",
		"知恵 [+0]",
		"知識 [+0]",
		"カリスマ [+0]",
		"運 [+0]",
		"力固定 [0]",
		"敏捷固定 [0]",
		"健康固定 [0]",
		"知恵固定 [0]",
		"知識固定 [0]",
		"カリスマ固定 [0]",
		"運固定 [0]",
		"力 [+1]/レベル [0]",
		"敏捷 [+1]/レベル [0]",
		"健康 [+1]/レベル [0]",
		"知恵 [+1]/レベル [0]",
		"知識 [+1]/レベル [0]",
		"カリスマ [+1]/レベル [0]",
		"運 [+1]/レベル [0]",
		"ダメージ [+0]％",
		"最小ダメージ [+0]",
		"最大ダメージ [+0]",
		"防御力 [+0]％",
		"防御力 [+0]",
		"最大HP [+0]％",
		"最大HP [+0]",
		"最大CP [+0]％",
		"最大CP [+0]",
		"減少限界CP [+0]",
		"命中率 [+0]％",
		"回避率 [+0]％",
		"ブロック率 [+0]％",
		"致命打発動確率 [+0]％",
		"決定打発動確率 [+0]％",
		"ターゲットの回避率補正値 無視",
		"攻撃者の命中率補正値 無視 ",
		"命中率 <c:LTYELLOW>100％<n>",
		"ブロッキング速度 [+0]％",
		"移動速度 [+0]％",
		"攻撃速度 [+0]％",
		"ポーション回復速度 [+0]％増加",
		"集中力 [+0]％",
		"火ダメージ [0]～[1]",
		"水ダメージ [0]～[1]%a- コールド [2]Frame",
		"風ダメージ [0]～[1]%a- スタン [2]Frame",
		"[2]秒 [0]～[1] 毒ダメージ",
		"光ダメージ [0]～[1]%a- [2]秒の間 命中, 回避低下",
		"闇ダメージ [0]～[1]%a- 呪い [2]秒",
		"敵に与えたダメージ [0]％を 体力吸収",
		"CP獲得ボーナス [0]％",
		"敵逃亡 [0]％",
		"ノックアウト攻撃 [+0]％",
		"即死攻撃 [+0]％",
		"武器破壊攻撃 [+0]％([1]秒)",
		"鎧破壊攻撃 [+0]％([1]秒)",
		"コールド攻撃+ [0]％([1]秒)",
		"フリーズ攻撃 [+0]％([1]秒)",
		"目くらまし攻撃 [+0]％([1]秒)",
		"スタン攻撃 [+0]％([1]秒)",
		"石化攻撃 [+0]％([1]秒)",
		"混乱攻撃 [+0]％([1]秒)",
		"睡眠攻撃 [+0]％([1]秒)",
		"チャーミング攻撃 [+0]％([1]秒)",
		"優先ターゲット攻撃 [+0]％([1]秒)",
		"AI低下攻撃 [+0]％([1]秒)",
		"ベルセルク攻撃 [+0]％([1]秒)",
		"火属性抵抗 [+0]％",
		"水属性抵抗 [+0]％",
		"風属性抵抗 [+0]％",
		"大地属性抵抗 [+0]％",
		"光属性抵抗 [+0]％",
		"闇属性抵抗 [+0]％",
		"魔法抵抗 [+0]％",
		"火属性ダメージ吸収 [0]％",
		"水属性ダメージ吸収 [0]％",
		"風属性ダメージ吸収 [0]％",
		"大地属性ダメージ吸収 [0]％",
		"光属性ダメージ吸収 [0]％",
		"闇属性ダメージ吸収 [0]％",
		"魔法属性ダメージ吸収 [0]％",
		"フリーズ抵抗 [+0]％",
		"コールド抵抗 [+0]％",
		"スタン抵抗 [+0]％",
		"混乱抵抗 [+0]％",
		"チャーミング抵抗 [+0]％",
		"石化抵抗 [+0]％",
		"即死抵抗 [+0]％",
		"毒抵抗 [+0]％",
		"睡眠抵抗 [+0]％",
		"状態異常抵抗 [+0]％",
		"低下系抵抗 [+0]％",
		"呪い系抵抗 [+0]％",
		"すべての異常系抵抗 [+0]％",
		"ノックバック抵抗 [+0]％",
		"致命打抵抗 [+0]％",
		"決定打抵抗 [+0]％",
		"ダメージ返し [0]％",
		"ダメージをCPに転換 [0]％",
		"カウンターフリーズ [0]％([1]秒)",
		"カウンターコールド [0]％([1]秒)",
		" ",
		"スキルレベル [+0]([1]系列 職業)",
		"スキルレベル [+0]",
		"攻撃を受けると <c:LTYELLOW>10％<n>の確率でダメージの[0]％を応急処置",
		"武器交換速度 [+0]％",
		"HP回復 +([0]/10秒)",
		"復活 [0]％",
		"<c:LTYELLOW>ブラー<n>",
		"<c:LTYELLOW>透明<n>",
		"<c:LTYELLOW>空中浮遊<n>",
		"<c:LTYELLOW>魔法弾丸<n>",
		"<c:LTYELLOW>無限弾丸<n>",
		"<c:LTYELLOW>先攻されない<n>",
		"魔法アイテムドロップ確率 [+0]％",
		"ユニークアイテムドロップ確率 [+0]％",
		"アイテムリロードタイム -[0]％",
		"<c:LTYELLOW>アイテム自動リロード<n>",
		"<c:LTYELLOW>アイテム使用不可<n>",
		"<c:LTYELLOW>装備解除不可<n>",
		"<c:LTYELLOW>追加エンチャントが不可能<n>",
		"<c:LTYELLOW>火攻撃称号 1段階上昇<n>",
		"<c:LTYELLOW>水攻撃称号 1段階上昇<n>",
		"<c:LTYELLOW>風攻撃称号 1段階 上昇<n>",
		"<c:LTYELLOW>大地攻撃称号 1段階 上昇<n>",
		"<c:LTYELLOW>光攻撃称号 1段階 上昇<n>",
		"<c:LTYELLOW>闇攻撃称号 1段階 上昇<n>",
		"スキル難易度[0]以下のスキルレベルが[1]増加する。",
		"召喚獣のすべてのステータスが[0]増加",
		"[0]％のペット経験値ボーナス",
		"一定期間貸与するアイテム",
		"ターゲットの火抵抗を<c:LTYELLOW>[0]％<n>弱化させる。",
		"ターゲットの水抵抗を<c:LTYELLOW>[0]％<n>弱化させる。",
		"ターゲットの風抵抗を<c:LTYELLOW>[0]％<n>弱化させる。",
		"ターゲットの大地抵抗を<c:LTYELLOW>[0]％<n>弱化させる。",
		"ターゲットの光抵抗を<c:LTYELLOW>[0]％<n>弱化させる。",
		"ターゲットの闇抵抗を<c:LTYELLOW>[0]％<n>弱化させる。",
		"ターゲットの魔法抵抗を<c:LTYELLOW>[0]％<n>弱化させる。",
		"火属性攻撃力を<c:LTYELLOW>[0]％<n>強化させる。",
		"水属性攻撃力を<c:LTYELLOW>[0]％<n>強化させる。",
		"風属性攻撃力を<c:LTYELLOW>[0]％<n>強化させる。",
		"大地属性攻撃力を<c:LTYELLOW>[0]％<n>強化させる。",
		"光属性攻撃力を<c:LTYELLOW>[0]％<n>強化させる。",
		"闇属性攻撃力を<c:LTYELLOW>[0]％<n>強化させる。",
		"魔法攻撃力を<c:LTYELLOW>[0]％<n>強化させる。",
		"力[-0]",
		"敏捷性[-0]",
		"健康[-0]",
		"知恵[-0]",
		"知識[-0]",
		"カリスマ[-0]",
		"運[-0]",
		"攻撃速度[-0]％",
		"移動速度[-0]％",
		"アンデッド型キャラクターに追加で<c:LTYELLOW>[0]％<n>のダメージを与える。",
		"悪魔型キャラクターに追加で<c:LTYELLOW>[0]％<n>のダメージを与える。",
		"人間型キャラクターに追加で<c:LTYELLOW>[0]％<n>のダメージを与える。",
		"動物型キャラクターに追加で<c:LTYELLOW>[0]％<n>のダメージを与える。",
		"神獣型キャラクターに追加で<c:LTYELLOW>[0]％<n>のダメージを与える。",
		"ポーション回復速度<c:LTYELLOW>[0]％<n>増加",
		"防御力[-0]％",
		"防御力[-0]",
		"命中率[-0]％",
		"回避率[-0]％",
		"火ダメージ [0]～[1]",
		"水ダメージ [0]～[1]%d%a- コールド [2]Frame",
		"風ダメージ [0]～[1]%d%a- スタン [2]Frame",
		"[2]秒 [0]～[1] 毒ダメージ",
		"光ダメージ [0]～[1]%d%a- [2]秒の間 命中, 回避低下",
		"闇ダメージ [0]～[1]%d%a- 呪い [2]秒",
		"[1]レベルのスキルを使用（持続時間 [3]秒）",
		"すべての能力値 [+0]",
		"[0]スキルを刻印レベルに使用",
		"強打[+0]％",
		"最終ダメージ [+0]％",
		"座っている時 CP [+0]",
		"歩行中 HP [+0]",
		"歩行中 CP [+0]",
		"HP ポーション回復量 [+0]％ 増加",
		"CP ポーション回復量 [+0]％ 増加",
		"食べ物回復量 [+0]％ 増加",
		"ダブルクリティカルダメージ [0]％ 増加",
		"ダブルクリティカルダメージ [0]％ 減少",
		"クリティカルダメージ [0]％ 増加",
		"クリティカルダメージ [0]％ 減少",
		"座っている時 [0]％の確率で、すべての異常状態治療",
		"座っている時 [0]％の確率で、すべての呪い系状態治療",
		"座っている時 [0]％の確率で、すべての低下系状態治療",
		"精霊型ミニペット スキルレベル[+0]",
		"神霊型ミニペット スキルレベル[+0]",
		"自然型ミニペット スキルレベル[+0]",
		"精霊型ミニペット スキル発動確率[+0]％",
		"神霊型ミニペット スキル発動確率[+0]％",
		"自然型ミニペット スキル発動確率[+0]％",
		"vs人間型追加ダメージ抵抗[0]％",
		"火の恩寵 持続時間 [+0]秒",
		"水の恩寵 持続時間 [+0]秒",
		"風の恩寵 持続時間 [+0]秒",
		"大地の恩寵 持続時間 [+0]秒",
		"回避時、既存ダメージの[+0]％を与える(30秒クールタイム)",
		"絶対回避 [+0]％",
		"致命傷を受けると [0]秒間 物理無敵状態(60秒クールタイム)",
		"致命傷を受けると [0]秒間 魔法無敵状態(60秒クールタイム)",
		"致命傷を受けると [0]秒間 絶対無敵状態(60秒クールタイム)",
		"ダメージ +[0]％ (転生回数比例)",
		"防御力 +[0]％ (転生回数比例)",
		"攻撃速度 +[0]％ (転生回数比例)",
		"致命打発動確率 +[0]％ (転生回数比例)",
		"回避率 +[0]％ (転生回数比例)",
		"召喚獣の攻撃力 [+0]％",
		"召喚獣の魔法攻撃力 [+0]％",
		"召喚獣の防御力 [+0]",
		"召喚獣の防御力 [+0]％",
		"召喚獣の攻撃速度 [+0]％",
		"召喚獣の移動速度 [+0]％",
		"召喚獣の最大体力 [+0]",
		"召喚獣の最大体力 [+0]％",
		"召喚獣の最大CP [+0]",
		"召喚獣の最大CP [+0]％",
		"召喚獣の命中率 [+0]％",
		"召喚獣の回避率 [+0]％",
		"召喚獣の決定打攻撃確率 [+0]％",
		"召喚獣のクリティカル攻撃確率 [+0]％",
		"召喚獣の力 [+0]",
		"召喚獣の敏捷性 [+0]",
		"召喚獣の健康 [+0]",
		"召喚獣の知識 [+0]",
		"召喚獣の知恵 [+0]",
		"召喚獣のカリスマ [+0]",
		"召喚獣の運 [+0]",
		"召喚獣の全てのステータス [+0]",
		"召喚獣の火抵抗 [+0]％",
		"召喚獣の水抵抗 [+0]％",
		"召喚獣の風抵抗 [+0]％",
		"召喚獣の大地抵抗 [+0]％",
		"召喚獣の光抵抗 [+0]％",
		"召喚獣の闇抵抗 [+0]％",
		"召喚獣の全ての抵抗 [+0]％",
		"召喚獣の火属性攻撃力 [+0]％",
		"召喚獣の水属性攻撃力 [+0]％",
		"召喚獣の風属性攻撃力 [+0]％",
		"召喚獣の大地属性攻撃力 [+0]％",
		"召喚獣の光属性攻撃力 [+0]％",
		"召喚獣の闇属性攻撃力 [+0]％",
		"召喚獣の全ての属性攻撃力 [+0]％",
		"ペットの攻撃力 [+0]％",
		"ペットの魔法攻撃力 [+0]％",
		"ペットの防御力 [+0]",
		"ペットの防御力 [+0]％",
		"ペットの攻撃速度 [+0]％",
		"ペットの移動速度 [+0]％",
		"ペットの最大体力 [+0]",
		"ペットの最大体力 [+0]％",
		"ペットの最大CP [+0]",
		"ペットの最大CP [+0]％",
		"ペットの命中率 [+0]％",
		"ペットの回避率 [+0]％",
		"ペットの致命打攻撃確率 [+0]％",
		"ペットのクリティカル攻撃確率 [+0]％",
		"ペットの力 [+0]",
		"ペットの敏捷性 [+0]",
		"ペットの健康 [+0]",
		"ペットの知識 [+0]",
		"ペットの知恵 [+0]",
		"ペットのカリスマ [+0]",
		"ペットの運 [+0]",
		"ペットの全てのステータス [+0]",
		"ペットの火抵抗 [+0]％",
		"ペットの水抵抗 [+0]％",
		"ペットの風抵抗 [+0]％",
		"ペットの大地抵抗 [+0]％",
		"ペットの光抵抗 [+0]％",
		"ペットの闇抵抗 [+0]％",
		"ペットの全ての抵抗 [+0]％",
		"ペットの火属性攻撃力 [+0]％",
		"ペットの水属性攻撃力 [+0]％",
		"ペットの風属性攻撃力 [+0]％",
		"ペットの大地属性攻撃力 [+0]％",
		"ペットの光属性攻撃力 [+0]％",
		"ペットの闇属性攻撃力 [+0]％",
		"ペットの全ての属性攻撃力 [+0]％",
		"ペットの忠誠度 [+0]",
		"DXユニークドロップ確率 [0]％ 増加",
		"[0]％確率で魔法ダメージの[1]％を体力吸収",
		"ファイアボールの個数 [0]個増加",
		"変身の強制解除無効",
		"変身後 [0]秒間ダメージ +[1]％",
		"魔法致命打 [0]％",
		"魔法致命打抵抗 [0]％",
		"敵致命打抵抗率 [0]％ 減少",
		"アイテム着用レベル -[0]",
		"モンスター鑑別士称号レベル +[0]",
		"地図製作者称号レベル +[0]",
		"錬金術称号レベル +[0]",
		"シティーウォーカー称号レベル +[0]",
		"薬師称号レベル +[0]",
		"密教称号レベル +[0]",
		"魅了した敵に +[0]％ ダメージ追加",
		"毒を瞬間的に広めてダメージを与える(10秒クールタイム)",
		"耐久度減少率 -[0]％",
		"体力減少 -([0]/10秒)"
	]
}